{
    "command": "/api/tasks/get-list",
    "message": "",
    "error": 0,
    "data": {
        "tasks": [
            {
                "id": 2,
                "title": "voluptasTask",
                "status": {
                    "id": 2,
                    "title": "In work"
                },
                "type": {
                    "id": 1,
                    "title": "Task"
                },
                "priority": {
                    "id": 4,
                    "title": "Priority"
                },
                "component": {
                    "id": 4,
                    "title": "Android",
                    "description": "Android component",
                    "owner": {
                        "id": 2,
                        "name": "Richie",
                        "surname": "Kohler",
                        "email": "levi.kassulke@example.net"
                    }
                },
                "performer": {
                    "id": 1,
                    "name": "Thurman",
                    "surname": "Bashirian",
                    "email": "cassin.elvis@example.org"
                },
                "author": {
                    "id": 4,
                    "name": "Mitchell",
                    "surname": "Luettgen",
                    "email": "hirthe.ressie@example.net"
                }
            }
        ],
        "links": {
            "first": "http://localhost:8080/api/tasks/get-list?page=1",
            "last": "http://localhost:8080/api/tasks/get-list?page=1",
            "prev": null,
            "next": null
        },
        "meta": {
            "current_page": 1,
            "from": 1,
            "last_page": 1,
            "links": [
                {
                    "url": null,
                    "label": "&laquo; Previous",
                    "active": false
                },
                {
                    "url": "http://localhost:8080/api/tasks/get-list?page=1",
                    "label": "1",
                    "active": true
                },
                {
                    "url": null,
                    "label": "Next &raquo;",
                    "active": false
                }
            ],
            "path": "http://localhost:8080/api/tasks/get-list",
            "per_page": 10,
            "to": 1,
            "total": 1
        }
    },
    "token": "1"
}
