{
    "command": "/api/tags/get-list",
    "message": "",
    "error": 0,
    "data": {
        "tags": [
            {
                "id": 1,
                "title": "#ab"
            },
            {
                "id": 2,
                "title": "#quibusdam"
            },
            {
                "id": 3,
                "title": "#voluptatum"
            },
            {
                "id": 4,
                "title": "#doloremque"
            },
            {
                "id": 5,
                "title": "#tempora"
            }
        ],
        "links": {
            "first": "http://localhost:8080/api/tags/get-list?page=1",
            "last": "http://localhost:8080/api/tags/get-list?page=1",
            "prev": null,
            "next": null
        },
        "meta": {
            "current_page": 1,
            "from": 1,
            "last_page": 1,
            "links": [
                {
                    "url": null,
                    "label": "&laquo; Previous",
                    "active": false
                },
                {
                    "url": "http://localhost:8080/api/tags/get-list?page=1",
                    "label": "1",
                    "active": true
                },
                {
                    "url": null,
                    "label": "Next &raquo;",
                    "active": false
                }
            ],
            "path": "http://localhost:8080/api/tags/get-list",
            "per_page": 10,
            "to": 5,
            "total": 5
        }
    },
    "token": "1"
}
